\relax 
\providecommand\hyper@newdestlabel[2]{}
\@writefile{nav}{\headcommand {\slideentry {0}{0}{1}{1/1}{}{0}}}
\@writefile{nav}{\headcommand {\beamer@framepages {1}{1}}}
\@writefile{nav}{\headcommand {\slideentry {0}{0}{2}{2/2}{}{0}}}
\@writefile{nav}{\headcommand {\beamer@framepages {2}{2}}}
\@writefile{toc}{\beamer@sectionintoc {1}{What is GIS?}{3}{0}{1}}
\@writefile{nav}{\headcommand {\sectionentry {1}{What is GIS?}{3}{What is GIS?}{0}}}
\@writefile{nav}{\headcommand {\beamer@sectionpages {1}{2}}}
\@writefile{nav}{\headcommand {\beamer@subsectionpages {1}{2}}}
\@writefile{toc}{\beamer@subsectionintoc {1}{1}{Definition}{3}{0}{1}}
\@writefile{nav}{\headcommand {\beamer@subsectionentry {0}{1}{1}{3}{Definition}}\headcommand {\beamer@subsectionpages {3}{2}}}
\@writefile{nav}{\headcommand {\slideentry {1}{1}{1}{3/3}{Definition}{0}}}
\@writefile{nav}{\headcommand {\beamer@framepages {3}{3}}}
\@writefile{nav}{\headcommand {\slideentry {1}{1}{2}{4/4}{Definition}{0}}}
\@writefile{nav}{\headcommand {\beamer@framepages {4}{4}}}
\@writefile{toc}{\beamer@subsectionintoc {1}{2}{Softwares}{5}{0}{1}}
\@writefile{nav}{\headcommand {\beamer@subsectionentry {0}{1}{2}{5}{Softwares}}\headcommand {\beamer@subsectionpages {3}{4}}}
\@writefile{nav}{\headcommand {\slideentry {1}{2}{1}{5/5}{Softwares}{0}}}
\@writefile{nav}{\headcommand {\beamer@framepages {5}{5}}}
\@writefile{toc}{\beamer@subsectionintoc {1}{3}{Geographical data}{6}{0}{1}}
\@writefile{nav}{\headcommand {\beamer@subsectionentry {0}{1}{3}{6}{Geographical data}}\headcommand {\beamer@subsectionpages {5}{5}}}
\@writefile{nav}{\headcommand {\slideentry {1}{3}{1}{6/6}{Geographical data}{0}}}
\@writefile{nav}{\headcommand {\beamer@framepages {6}{6}}}
\@writefile{nav}{\headcommand {\slideentry {1}{3}{2}{7/7}{Geographical data}{0}}}
\@writefile{nav}{\headcommand {\beamer@framepages {7}{7}}}
\@writefile{nav}{\headcommand {\slideentry {1}{3}{3}{8/9}{Geographical data}{0}}}
\@writefile{nav}{\headcommand {\beamer@framepages {8}{9}}}
\@writefile{nav}{\headcommand {\slideentry {1}{3}{4}{10/10}{Geographical data}{0}}}
\@writefile{nav}{\headcommand {\beamer@framepages {10}{10}}}
\@writefile{nav}{\headcommand {\slideentry {1}{3}{5}{11/11}{Geographical data}{0}}}
\@writefile{nav}{\headcommand {\beamer@framepages {11}{11}}}
\@writefile{toc}{\beamer@sectionintoc {2}{Applications}{12}{0}{2}}
\@writefile{nav}{\headcommand {\sectionentry {2}{Applications}{12}{Applications}{0}}}
\@writefile{nav}{\headcommand {\beamer@sectionpages {3}{11}}}
\@writefile{nav}{\headcommand {\beamer@subsectionpages {6}{11}}}
\@writefile{toc}{\beamer@subsectionintoc {2}{1}{View data & create Maps}{12}{0}{2}}
\@writefile{nav}{\headcommand {\beamer@subsectionentry {0}{2}{1}{12}{View data & create Maps}}\headcommand {\beamer@subsectionpages {12}{11}}}
\@writefile{nav}{\headcommand {\slideentry {2}{1}{1}{12/12}{View data & create Maps}{0}}}
\@writefile{nav}{\headcommand {\beamer@framepages {12}{12}}}
\@writefile{nav}{\headcommand {\slideentry {2}{1}{2}{13/13}{View data & create Maps}{0}}}
\@writefile{nav}{\headcommand {\beamer@framepages {13}{13}}}
\@writefile{nav}{\headcommand {\slideentry {2}{1}{3}{14/14}{View data & create Maps}{0}}}
\@writefile{nav}{\headcommand {\beamer@framepages {14}{14}}}
\@writefile{nav}{\headcommand {\slideentry {2}{1}{4}{15/15}{View data & create Maps}{0}}}
\@writefile{nav}{\headcommand {\beamer@framepages {15}{15}}}
\@writefile{nav}{\headcommand {\slideentry {2}{1}{5}{16/16}{View data & create Maps}{0}}}
\@writefile{nav}{\headcommand {\beamer@framepages {16}{16}}}
\@writefile{nav}{\headcommand {\slideentry {2}{1}{6}{17/17}{View data & create Maps}{0}}}
\@writefile{nav}{\headcommand {\beamer@framepages {17}{17}}}
\@writefile{toc}{\beamer@subsectionintoc {2}{2}{Make spatial analyses}{18}{0}{2}}
\@writefile{nav}{\headcommand {\beamer@subsectionentry {0}{2}{2}{18}{Make spatial analyses}}\headcommand {\beamer@subsectionpages {12}{17}}}
\@writefile{nav}{\headcommand {\slideentry {2}{2}{1}{18/18}{Make spatial analyses}{0}}}
\@writefile{nav}{\headcommand {\beamer@framepages {18}{18}}}
\@writefile{nav}{\headcommand {\slideentry {2}{2}{2}{19/19}{Make spatial analyses}{0}}}
\@writefile{nav}{\headcommand {\beamer@framepages {19}{19}}}
\@writefile{nav}{\headcommand {\slideentry {2}{2}{3}{20/20}{Make spatial analyses}{0}}}
\@writefile{nav}{\headcommand {\beamer@framepages {20}{20}}}
\@writefile{nav}{\headcommand {\slideentry {2}{2}{4}{21/22}{Make spatial analyses}{0}}}
\@writefile{nav}{\headcommand {\beamer@framepages {21}{22}}}
\@writefile{nav}{\headcommand {\slideentry {2}{2}{5}{23/23}{Make spatial analyses}{0}}}
\@writefile{nav}{\headcommand {\beamer@framepages {23}{23}}}
\@writefile{nav}{\headcommand {\slideentry {2}{2}{6}{24/24}{Make spatial analyses}{0}}}
\@writefile{nav}{\headcommand {\beamer@framepages {24}{24}}}
\@writefile{toc}{\beamer@sectionintoc {3}{Survival kit}{25}{0}{3}}
\@writefile{nav}{\headcommand {\sectionentry {3}{Survival kit}{25}{Survival kit}{0}}}
\@writefile{nav}{\headcommand {\beamer@sectionpages {12}{24}}}
\@writefile{nav}{\headcommand {\beamer@subsectionpages {18}{24}}}
\@writefile{nav}{\headcommand {\slideentry {3}{0}{1}{25/25}{}{0}}}
\@writefile{nav}{\headcommand {\beamer@framepages {25}{25}}}
\@writefile{toc}{\beamer@subsectionintoc {3}{1}{Geodesy}{26}{0}{3}}
\@writefile{nav}{\headcommand {\beamer@subsectionentry {0}{3}{1}{26}{Geodesy}}\headcommand {\beamer@subsectionpages {25}{25}}}
\@writefile{nav}{\headcommand {\slideentry {3}{1}{1}{26/27}{Geodesy}{0}}}
\@writefile{nav}{\headcommand {\beamer@framepages {26}{27}}}
\@writefile{toc}{\beamer@subsectionintoc {3}{2}{Projections}{28}{0}{3}}
\@writefile{nav}{\headcommand {\beamer@subsectionentry {0}{3}{2}{28}{Projections}}\headcommand {\beamer@subsectionpages {26}{27}}}
\@writefile{nav}{\headcommand {\slideentry {3}{2}{1}{28/29}{Projections}{0}}}
\@writefile{nav}{\headcommand {\beamer@framepages {28}{29}}}
\@writefile{nav}{\headcommand {\slideentry {3}{2}{2}{30/30}{Projections}{0}}}
\@writefile{nav}{\headcommand {\beamer@framepages {30}{30}}}
\@writefile{nav}{\headcommand {\slideentry {3}{2}{3}{31/31}{Projections}{0}}}
\@writefile{nav}{\headcommand {\beamer@framepages {31}{31}}}
\@writefile{nav}{\headcommand {\slideentry {3}{2}{4}{32/33}{Projections}{0}}}
\@writefile{nav}{\headcommand {\beamer@framepages {32}{33}}}
\@writefile{toc}{\beamer@subsectionintoc {3}{3}{Creating feature}{34}{0}{3}}
\@writefile{nav}{\headcommand {\beamer@subsectionentry {0}{3}{3}{34}{Creating feature}}\headcommand {\beamer@subsectionpages {28}{33}}}
\@writefile{nav}{\headcommand {\slideentry {3}{3}{1}{34/34}{Creating feature}{0}}}
\@writefile{nav}{\headcommand {\beamer@framepages {34}{34}}}
\@writefile{nav}{\headcommand {\slideentry {3}{3}{2}{35/35}{Creating feature}{0}}}
\@writefile{nav}{\headcommand {\beamer@framepages {35}{35}}}
\@writefile{toc}{\beamer@subsectionintoc {3}{4}{Data management}{36}{0}{3}}
\@writefile{nav}{\headcommand {\beamer@subsectionentry {0}{3}{4}{36}{Data management}}\headcommand {\beamer@subsectionpages {34}{35}}}
\@writefile{nav}{\headcommand {\slideentry {3}{4}{1}{36/36}{Data management}{0}}}
\@writefile{nav}{\headcommand {\beamer@framepages {36}{36}}}
\@writefile{nav}{\headcommand {\slideentry {3}{4}{2}{37/37}{Data management}{0}}}
\@writefile{nav}{\headcommand {\beamer@framepages {37}{37}}}
\@writefile{nav}{\headcommand {\slideentry {3}{4}{3}{38/38}{Data management}{0}}}
\@writefile{nav}{\headcommand {\beamer@framepages {38}{38}}}
\@writefile{nav}{\headcommand {\slideentry {3}{4}{4}{39/39}{Data management}{0}}}
\@writefile{nav}{\headcommand {\beamer@framepages {39}{39}}}
\@writefile{nav}{\headcommand {\slideentry {3}{4}{5}{40/40}{Data management}{0}}}
\@writefile{nav}{\headcommand {\beamer@framepages {40}{40}}}
\@writefile{nav}{\headcommand {\slideentry {3}{4}{6}{41/41}{Data management}{0}}}
\@writefile{nav}{\headcommand {\beamer@framepages {41}{41}}}
\@writefile{toc}{\beamer@sectionintoc {4}{Practice}{42}{0}{4}}
\@writefile{nav}{\headcommand {\sectionentry {4}{Practice}{42}{Practice}{0}}}
\@writefile{nav}{\headcommand {\beamer@sectionpages {25}{41}}}
\@writefile{nav}{\headcommand {\beamer@subsectionpages {36}{41}}}
\@writefile{nav}{\headcommand {\slideentry {4}{0}{1}{42/42}{}{0}}}
\@writefile{nav}{\headcommand {\beamer@framepages {42}{42}}}
\@writefile{nav}{\headcommand {\slideentry {4}{0}{2}{43/43}{}{0}}}
\@writefile{nav}{\headcommand {\beamer@framepages {43}{43}}}
\@writefile{nav}{\headcommand {\slideentry {4}{0}{3}{44/44}{}{0}}}
\@writefile{nav}{\headcommand {\beamer@framepages {44}{44}}}
\@writefile{nav}{\headcommand {\slideentry {4}{0}{4}{45/45}{}{0}}}
\@writefile{nav}{\headcommand {\beamer@framepages {45}{45}}}
\@setckpt{content_en}{
\setcounter{page}{46}
\setcounter{equation}{0}
\setcounter{enumi}{0}
\setcounter{enumii}{0}
\setcounter{enumiii}{0}
\setcounter{enumiv}{0}
\setcounter{footnote}{0}
\setcounter{mpfootnote}{0}
\setcounter{beamerpauses}{1}
\setcounter{bookmark@seq@number}{13}
\setcounter{lecture}{0}
\setcounter{part}{0}
\setcounter{section}{4}
\setcounter{subsection}{0}
\setcounter{subsubsection}{0}
\setcounter{subsectionslide}{4}
\setcounter{framenumber}{40}
\setcounter{figure}{15}
\setcounter{table}{0}
\setcounter{parentequation}{0}
\setcounter{theorem}{0}
\setcounter{@anim@ltxcnt}{0}
\setcounter{ContinuedFloat}{0}
\setcounter{section@level}{0}
}
