\BOOKMARK [2][]{Outline0.1}{Introduction}{}% 1
\BOOKMARK [2][]{Outline0.2}{Methods}{}% 2
\BOOKMARK [2][]{Outline0.3}{Results}{}% 3
\BOOKMARK [3][]{Outline0.3.1.24}{Cutting date}{Outline0.3}% 4
\BOOKMARK [3][]{Outline0.3.2.34}{MAE}{Outline0.3}% 5
\BOOKMARK [3][]{Outline0.3.3.44}{Landscape}{Outline0.3}% 6
\BOOKMARK [2][]{Outline0.4}{Conclusion}{}% 7
