\headcommand {\slideentry {0}{0}{1}{1/1}{}{0}}
\headcommand {\beamer@framepages {1}{1}}
\headcommand {\sectionentry {1}{Introduction}{2}{Introduction}{0}}
\headcommand {\beamer@sectionpages {1}{1}}
\headcommand {\beamer@subsectionpages {1}{1}}
\headcommand {\slideentry {1}{0}{1}{2/2}{}{0}}
\headcommand {\beamer@framepages {2}{2}}
\headcommand {\slideentry {1}{0}{2}{3/3}{}{0}}
\headcommand {\beamer@framepages {3}{3}}
\headcommand {\slideentry {1}{0}{3}{4/4}{}{0}}
\headcommand {\beamer@framepages {4}{4}}
\headcommand {\slideentry {1}{0}{4}{5/5}{}{0}}
\headcommand {\beamer@framepages {5}{5}}
\headcommand {\slideentry {1}{0}{5}{6/6}{}{0}}
\headcommand {\beamer@framepages {6}{6}}
\headcommand {\slideentry {1}{0}{6}{7/7}{}{0}}
\headcommand {\beamer@framepages {7}{7}}
\headcommand {\slideentry {1}{0}{7}{8/8}{}{0}}
\headcommand {\beamer@framepages {8}{8}}
\headcommand {\slideentry {1}{0}{8}{9/9}{}{0}}
\headcommand {\beamer@framepages {9}{9}}
\headcommand {\slideentry {1}{0}{9}{10/10}{}{0}}
\headcommand {\beamer@framepages {10}{10}}
\headcommand {\slideentry {1}{0}{10}{11/11}{}{0}}
\headcommand {\beamer@framepages {11}{11}}
\headcommand {\slideentry {1}{0}{11}{12/12}{}{0}}
\headcommand {\beamer@framepages {12}{12}}
\headcommand {\slideentry {1}{0}{12}{13/13}{}{0}}
\headcommand {\beamer@framepages {13}{13}}
\headcommand {\slideentry {1}{0}{13}{14/14}{}{0}}
\headcommand {\beamer@framepages {14}{14}}
\headcommand {\slideentry {1}{0}{14}{15/15}{}{0}}
\headcommand {\beamer@framepages {15}{15}}
\headcommand {\slideentry {1}{0}{15}{16/16}{}{0}}
\headcommand {\beamer@framepages {16}{16}}
\headcommand {\slideentry {1}{0}{16}{17/17}{}{0}}
\headcommand {\beamer@framepages {17}{17}}
\headcommand {\slideentry {1}{0}{17}{18/18}{}{0}}
\headcommand {\beamer@framepages {18}{18}}
\headcommand {\slideentry {1}{0}{18}{19/19}{}{0}}
\headcommand {\beamer@framepages {19}{19}}
\headcommand {\slideentry {1}{0}{19}{20/20}{}{0}}
\headcommand {\beamer@framepages {20}{20}}
\headcommand {\sectionentry {2}{Methods}{21}{Methods}{0}}
\headcommand {\beamer@sectionpages {2}{20}}
\headcommand {\beamer@subsectionpages {2}{20}}
\headcommand {\slideentry {2}{0}{1}{21/21}{}{0}}
\headcommand {\beamer@framepages {21}{21}}
\headcommand {\slideentry {2}{0}{2}{22/22}{}{0}}
\headcommand {\beamer@framepages {22}{22}}
\headcommand {\slideentry {2}{0}{3}{23/23}{}{0}}
\headcommand {\beamer@framepages {23}{23}}
\headcommand {\sectionentry {3}{Results}{24}{Results}{0}}
\headcommand {\beamer@sectionpages {21}{23}}
\headcommand {\beamer@subsectionpages {21}{23}}
\headcommand {\beamer@subsectionentry {0}{3}{1}{24}{Cutting date}}\headcommand {\beamer@subsectionpages {24}{23}}
\headcommand {\slideentry {3}{1}{1}{24/24}{Cutting date}{0}}
\headcommand {\beamer@framepages {24}{24}}
\headcommand {\slideentry {3}{1}{2}{25/25}{Cutting date}{0}}
\headcommand {\beamer@framepages {25}{25}}
\headcommand {\slideentry {3}{1}{3}{26/27}{Cutting date}{0}}
\headcommand {\beamer@framepages {26}{27}}
\headcommand {\slideentry {3}{1}{4}{28/28}{Cutting date}{0}}
\headcommand {\beamer@framepages {28}{28}}
\headcommand {\slideentry {3}{1}{5}{29/30}{Cutting date}{0}}
\headcommand {\beamer@framepages {29}{30}}
\headcommand {\slideentry {3}{1}{6}{31/31}{Cutting date}{0}}
\headcommand {\beamer@framepages {31}{31}}
\headcommand {\slideentry {3}{1}{7}{32/32}{Cutting date}{0}}
\headcommand {\beamer@framepages {32}{32}}
\headcommand {\slideentry {3}{1}{8}{33/33}{Cutting date}{0}}
\headcommand {\beamer@framepages {33}{33}}
\headcommand {\beamer@subsectionentry {0}{3}{2}{34}{MAE}}\headcommand {\beamer@subsectionpages {24}{33}}
\headcommand {\slideentry {3}{2}{1}{34/34}{MAE}{0}}
\headcommand {\beamer@framepages {34}{34}}
\headcommand {\slideentry {3}{2}{2}{35/35}{MAE}{0}}
\headcommand {\beamer@framepages {35}{35}}
\headcommand {\slideentry {3}{2}{3}{36/37}{MAE}{0}}
\headcommand {\beamer@framepages {36}{37}}
\headcommand {\slideentry {3}{2}{4}{38/38}{MAE}{0}}
\headcommand {\beamer@framepages {38}{38}}
\headcommand {\slideentry {3}{2}{5}{39/39}{MAE}{0}}
\headcommand {\beamer@framepages {39}{39}}
\headcommand {\slideentry {3}{2}{6}{40/40}{MAE}{0}}
\headcommand {\beamer@framepages {40}{40}}
\headcommand {\slideentry {3}{2}{7}{41/41}{MAE}{0}}
\headcommand {\beamer@framepages {41}{41}}
\headcommand {\slideentry {3}{2}{8}{42/42}{MAE}{0}}
\headcommand {\beamer@framepages {42}{42}}
\headcommand {\slideentry {3}{2}{9}{43/43}{MAE}{0}}
\headcommand {\beamer@framepages {43}{43}}
\headcommand {\beamer@subsectionentry {0}{3}{3}{44}{Landscape}}\headcommand {\beamer@subsectionpages {34}{43}}
\headcommand {\slideentry {3}{3}{1}{44/44}{Landscape}{0}}
\headcommand {\beamer@framepages {44}{44}}
\headcommand {\slideentry {3}{3}{2}{45/45}{Landscape}{0}}
\headcommand {\beamer@framepages {45}{45}}
\headcommand {\sectionentry {4}{Conclusion}{46}{Conclusion}{0}}
\headcommand {\beamer@sectionpages {24}{45}}
\headcommand {\beamer@subsectionpages {44}{45}}
\headcommand {\slideentry {4}{0}{1}{46/46}{}{0}}
\headcommand {\beamer@framepages {46}{46}}
\headcommand {\slideentry {4}{0}{2}{47/47}{}{0}}
\headcommand {\beamer@framepages {47}{47}}
\headcommand {\slideentry {4}{0}{3}{48/48}{}{0}}
\headcommand {\beamer@framepages {48}{48}}
\headcommand {\slideentry {4}{0}{4}{49/49}{}{0}}
\headcommand {\beamer@framepages {49}{49}}
\headcommand {\slideentry {4}{0}{5}{50/50}{}{0}}
\headcommand {\beamer@framepages {50}{50}}
\headcommand {\beamer@partpages {1}{50}}
\headcommand {\beamer@subsectionpages {46}{50}}
\headcommand {\beamer@sectionpages {46}{50}}
\headcommand {\beamer@documentpages {50}}
\headcommand {\def \inserttotalframenumber {47}}
